@startuml
 !theme plain
 skinparam background #ffffff
 skinparam stateBackgroundColor #b3e5fc
 skinparam wrapWidth 300
 skinparam linetype ortho
 init : Initialize i2c0 communication interface
 init_offset_values : Initialize all the offset values as 0
 state finding_offstet {
  get_samples : Read the accelerometer and gyroscope values with offset values subtracted
  get_average : Calculate the average of the accelerometer and gyroscope values
  set_offset : Set average values of accelerometer and gyroscope as offset.
  [*] --> get_samples
  get_samples --> get_average
  get_average --> set_offset
  set_offset --> [*]
 }
 state verify_readings {
  get_sample_with_offset : Read the accelerometer and gyroscope values with offset values subtracted
  check_tolerance : verify the tolerance of the samples
  [*] --> get_sample_with_offset
  get_sample_with_offset --> check_tolerance
  check_tolerance --> [*]
 }
 [*] -> init
 init -> init_offset_values
 init_offset_values -> finding_offstet
 finding_offstet --> verify_readings : verification
 verify_readings --> finding_offstet : recalibration
 verify_readings -> [*] : calibrated
@enduml
