@startuml
 !theme plain
 skinparam background #ffffff
 skinparam stateBackgroundColor #b3e5fc
 skinparam wrapWidth 1000
 skinparam linetype ortho
 class calibrator {
  -int16_t accelerometer_offset_values[3]
  -int16_t gyroscope_offset_values[3]
  +void calibrate()
  +void get_calibrated_data(int16_t accelerometer_values[3], int16_t gyroscope_values[3])
 }

 enum mpu6050_filter_type_enum {
  mpu6050_filter_0
  mpu6050_filter_1
  mpu6050_filter_2
  mpu6050_filter_3
  mpu6050_filter_4
  mpu6050_filter_5
  mpu6050_filter_6
 }

 class mpu6050 {
  -bool is_sensor_present(void)
  -void disable_temprature_readings(void)
  -void enable_temprature_readings(void)
  -void reset(void)
  +void set_sensor_filter(mpu6050_filter_type_enum filter_type)
  +void read_raw(int16_t accelerometer_values[3], int16_t gyroscope_values[3])
 }

 class Application {
  -int16_t accelerometer_data_buffer[3]
  -int16_t gyroscope_data_buffer[3]
  +main()
 }


Application --> mpu6050 : depends
Application --> calibrator : uses

@enduml
